(module Relay_OmronG5RL-K1-E (layer F.Cu) (tedit 5A0DDDF3)
  (descr "Relay SPST Schrack-RP3SL RM5mm 16A 250V AC Form A http://www.alliedelec.com/m/d/543c6bed18bf23a83ae5238947033ee0.pdf")
  (tags "Relay SPST Schrack-RP3SL RM5mm 16A 250V AC Relay")
  (fp_text reference REF** (at 13.97 -3.81) (layer F.SilkS)
    (effects (font (size 1 1) (thickness 0.15)))
  )
  (fp_text value Relay_SPDT_G5RLK1E (at 12.192 11.43) (layer F.Fab)
    (effects (font (size 1 1) (thickness 0.15)))
  )
  (fp_line (start 2.6 4.6) (end 5 4.6) (layer F.SilkS) (width 0.12))
  (fp_line (start 2.5 3.6) (end 1.7 3.6) (layer F.SilkS) (width 0.12))
  (fp_line (start 0 1.8) (end 0 5.8) (layer F.Fab) (width 0.12))
  (fp_line (start -2.5 -2.5) (end 27.5 -2.5) (layer F.Fab) (width 0.12))
  (fp_line (start 27.5 -2.5) (end 27.5 10.1) (layer F.Fab) (width 0.12))
  (fp_line (start 27.5 10.1) (end -2.5 10.1) (layer F.Fab) (width 0.12))
  (fp_line (start -2.5 10.1) (end -2.5 -2.5) (layer F.Fab) (width 0.12))
  (fp_text user %R (at 12.065 3.81) (layer F.Fab)
    (effects (font (size 1 1) (thickness 0.15)))
  )
  (fp_line (start 28.2 -2.78) (end 28.2 10.42) (layer F.CrtYd) (width 0.05))
  (fp_line (start -2.8 -2.78) (end 28.2 -2.78) (layer F.CrtYd) (width 0.05))
  (fp_line (start -2.8 10.42) (end -2.8 -2.78) (layer F.CrtYd) (width 0.05))
  (fp_line (start 28.2 10.42) (end -2.8 10.42) (layer F.CrtYd) (width 0.05))
  (fp_line (start 2.54 4.84) (end 5.08 6.11) (layer F.SilkS) (width 0.12))
  (fp_line (start 3.81 6.35) (end 3.81 7.62) (layer F.SilkS) (width 0.12))
  (fp_line (start 3.81 7.62) (end 2.54 7.62) (layer F.SilkS) (width 0.12))
  (fp_line (start 2.54 0) (end 3.81 0) (layer F.SilkS) (width 0.12))
  (fp_line (start 3.81 0) (end 3.81 1.27) (layer F.SilkS) (width 0.12))
  (fp_line (start 3.81 1.27) (end 5.08 1.27) (layer F.SilkS) (width 0.12))
  (fp_line (start 5.08 1.27) (end 5.08 6.35) (layer F.SilkS) (width 0.12))
  (fp_line (start 5.08 6.35) (end 2.54 6.35) (layer F.SilkS) (width 0.12))
  (fp_line (start 2.54 6.35) (end 2.54 1.27) (layer F.SilkS) (width 0.12))
  (fp_line (start 2.54 1.27) (end 3.81 1.27) (layer F.SilkS) (width 0.12))
  (fp_line (start -2.54 -2.54) (end 27.94 -2.54) (layer F.SilkS) (width 0.12))
  (fp_line (start 27.94 -2.54) (end 27.94 10.16) (layer F.SilkS) (width 0.12))
  (fp_line (start 27.94 10.16) (end -2.54 10.16) (layer F.SilkS) (width 0.12))
  (fp_line (start -2.54 10.16) (end -2.54 -2.54) (layer F.SilkS) (width 0.12))
  (fp_line (start -2.5 10.1) (end -2.5 -2.5) (layer F.Fab) (width 0.12))
  (pad A1 thru_hole circle (at 0 0) (size 3 3) (drill 1.3) (layers *.Cu *.Mask))
  (pad A2 thru_hole circle (at 0 7.62) (size 3 3) (drill 1.3) (layers *.Cu *.Mask))
  (pad 11 thru_hole circle (at 20 0) (size 3 3) (drill 1.3) (layers *.Cu *.Mask))
  (pad 14 thru_hole circle (at 25 7.62) (size 3 3) (drill 1.3) (layers *.Cu *.Mask))
  (pad 11 thru_hole circle (at 20 7.62) (size 3 3) (drill 1.3) (layers *.Cu *.Mask))
  (pad 14 thru_hole circle (at 25 0) (size 3 3) (drill 1.3) (layers *.Cu *.Mask))
  (pad A3 thru_hole circle (at 0 3.6) (size 3 3) (drill 1.3) (layers *.Cu *.Mask))
  (pad 12 thru_hole circle (at 15 0) (size 3 3) (drill 1.3) (layers *.Cu *.Mask))
  (pad 12 thru_hole circle (at 15 7.6) (size 3 3) (drill 1.3) (layers *.Cu *.Mask))
  (model ${KISYS3DMOD}/Relays_THT.3dshapes/Relay_SPST_Schrack-RP3SL_RM5mm.wrl
    (at (xyz 0 0 0))
    (scale (xyz 1 1 1))
    (rotate (xyz 0 0 0))
  )
)
