(module Relay_SPST_TE_OJE-SS (layer F.Cu) (tedit 5A821589)
  (descr "Relay SPST Schrack-RP-II/1 RM3.5mm 8A 250V AC Form A")
  (tags "Relay SPST Schrack-RP-II/1 RM3.5mm 8A 250V AC Relay")
  (fp_text reference REF** (at 13.97 -3.81) (layer F.SilkS)
    (effects (font (size 1 1) (thickness 0.15)))
  )
  (fp_text value Relay_SPST_Schrack-RP-II-1-FormA_RM3.5mm (at 12.192 11.43) (layer F.Fab)
    (effects (font (size 1 1) (thickness 0.15)))
  )
  (fp_line (start 0 1.8) (end 0 5.8) (layer F.Fab) (width 0.12))
  (fp_line (start -2.5 -2.5) (end 17.780039 -2.5) (layer F.Fab) (width 0.12))
  (fp_line (start 17.78 -2.5) (end 17.78 10.1) (layer F.Fab) (width 0.12))
  (fp_line (start 17.780088 10.1) (end -2.5 10.1) (layer F.Fab) (width 0.12))
  (fp_line (start -2.5 10.1) (end -2.5 -2.5) (layer F.Fab) (width 0.12))
  (fp_text user %R (at 12.065 3.81) (layer F.Fab)
    (effects (font (size 1 1) (thickness 0.15)))
  )
  (fp_line (start 18.034 -2.78) (end 18.034 10.42) (layer F.CrtYd) (width 0.05))
  (fp_line (start -2.8 -2.78) (end 18.034004 -2.78) (layer F.CrtYd) (width 0.05))
  (fp_line (start -2.8 10.42) (end -2.8 -2.78) (layer F.CrtYd) (width 0.05))
  (fp_line (start 18.034 10.42) (end -2.8 10.42) (layer F.CrtYd) (width 0.05))
  (fp_line (start 2.54 2.54) (end 5.08 3.81) (layer F.SilkS) (width 0.12))
  (fp_line (start 3.81 6.35) (end 3.81 7.62) (layer F.SilkS) (width 0.12))
  (fp_line (start 3.81 7.62) (end 2.54 7.62) (layer F.SilkS) (width 0.12))
  (fp_line (start 2.54 0) (end 3.81 0) (layer F.SilkS) (width 0.12))
  (fp_line (start 3.81 0) (end 3.81 1.27) (layer F.SilkS) (width 0.12))
  (fp_line (start 3.81 1.27) (end 5.08 1.27) (layer F.SilkS) (width 0.12))
  (fp_line (start 5.08 1.27) (end 5.08 6.35) (layer F.SilkS) (width 0.12))
  (fp_line (start 5.08 6.35) (end 2.54 6.35) (layer F.SilkS) (width 0.12))
  (fp_line (start 2.54 6.35) (end 2.54 1.27) (layer F.SilkS) (width 0.12))
  (fp_line (start 2.54 1.27) (end 3.81 1.27) (layer F.SilkS) (width 0.12))
  (fp_line (start -2.54 -2.54) (end 17.78 -2.54) (layer F.SilkS) (width 0.12))
  (fp_line (start 17.78 -2.54) (end 17.78 10.16) (layer F.SilkS) (width 0.12))
  (fp_line (start 17.78 10.16) (end -2.54 10.16) (layer F.SilkS) (width 0.12))
  (fp_line (start -2.54 10.16) (end -2.54 -2.54) (layer F.SilkS) (width 0.12))
  (pad 1 thru_hole circle (at 0 0) (size 3 3) (drill 1.3) (layers *.Cu *.Mask))
  (pad 5 thru_hole circle (at 0 7.62) (size 3 3) (drill 1.3) (layers *.Cu *.Mask))
  (pad 2 thru_hole circle (at 15.24 0) (size 3 3) (drill 1.3) (layers *.Cu *.Mask))
  (pad 3 thru_hole circle (at 12.7 7.62) (size 3 3) (drill 1.3) (layers *.Cu *.Mask))
  (model ${KISYS3DMOD}/Relays_THT.3dshapes/Relay_SPST_Schrack-RP-II-1-FormA_RM3.5mm.wrl
    (at (xyz 0 0 0))
    (scale (xyz 1 1 1))
    (rotate (xyz 0 0 0))
  )
)
