(module Relay_1-Form-A_Schrack-RYII_RM5mm (layer F.Cu) (tedit 5C16923A)
  (descr "Relay, 1-Form-A, Schrack-RYII, RM5mm, SPST-NO")
  (tags "Relay 1-Form-A Schrack-RYII RM5mm SPST-NO")
  (fp_text reference REF** (at -19.1 -9.32) (layer F.SilkS)
    (effects (font (size 1 1) (thickness 0.15)))
  )
  (fp_text value Relay_1-Form-A_Schrack-RYII_RM5mm (at -19.1 3.38) (layer F.Fab)
    (effects (font (size 1 1) (thickness 0.15)))
  )
  (fp_line (start 9.5 -6) (end 0 -6) (layer F.CrtYd) (width 0.05))
  (fp_line (start 9.5 0) (end 9.5 -6) (layer F.CrtYd) (width 0.05))
  (fp_line (start 56 0) (end 9.5 0) (layer F.CrtYd) (width 0.05))
  (fp_line (start 56 -6) (end 56 0) (layer F.CrtYd) (width 0.05))
  (fp_line (start 66 -6) (end 56 -6) (layer F.CrtYd) (width 0.05))
  (fp_line (start 66 -44) (end 66 -6) (layer F.CrtYd) (width 0.05))
  (fp_line (start 56 -44) (end 66 -44) (layer F.CrtYd) (width 0.05))
  (fp_line (start 56 -50) (end 56 -44) (layer F.CrtYd) (width 0.05))
  (fp_line (start 9.5 -50) (end 56 -50) (layer F.CrtYd) (width 0.05))
  (fp_line (start 9.5 -44) (end 9.5 -50) (layer F.CrtYd) (width 0.05))
  (fp_line (start 0 -44) (end 9.5 -44) (layer F.CrtYd) (width 0.05))
  (fp_text user %R (at -19 -3) (layer F.Fab)
    (effects (font (size 1 1) (thickness 0.15)))
  )
  (fp_line (start 0 -44) (end 0 -6) (layer F.CrtYd) (width 0.05))
  (fp_line (start -33.75 2.55) (end -4.25 2.55) (layer F.CrtYd) (width 0.05))
  (fp_line (start -4.25 2.55) (end -4.25 -8.55) (layer F.CrtYd) (width 0.05))
  (fp_line (start -4.25 -8.55) (end -33.75 -8.55) (layer F.CrtYd) (width 0.05))
  (fp_line (start -30 -5.6) (end -30 -0.4) (layer F.Fab) (width 0.1))
  (fp_line (start -33.25 -8.05) (end -4.75 -8.05) (layer F.Fab) (width 0.1))
  (fp_line (start -4.75 -8.05) (end -4.75 2.05) (layer F.Fab) (width 0.1))
  (fp_line (start -4.75 2.05) (end -33.25 2.05) (layer F.Fab) (width 0.1))
  (fp_line (start -33.25 2.05) (end -33.25 -8.05) (layer F.Fab) (width 0.1))
  (fp_line (start -4.5 -6.1) (end -4.5 2.3) (layer F.SilkS) (width 0.12))
  (fp_line (start -33.5 -8.3) (end -6.9 -8.3) (layer F.SilkS) (width 0.12))
  (fp_line (start -5.25 -8.3) (end -4.5 -8.3) (layer F.SilkS) (width 0.12))
  (fp_line (start -4.55 2.3) (end -10.3 2.3) (layer F.SilkS) (width 0.12))
  (fp_line (start -27.46 -4.28) (end -24.92 -3.01) (layer F.SilkS) (width 0.12))
  (fp_line (start -26.19 -0.47) (end -26.19 0.8) (layer F.SilkS) (width 0.12))
  (fp_line (start -26.19 0.8) (end -27.46 0.8) (layer F.SilkS) (width 0.12))
  (fp_line (start -27.46 -6.82) (end -26.19 -6.82) (layer F.SilkS) (width 0.12))
  (fp_line (start -26.19 -6.82) (end -26.19 -5.55) (layer F.SilkS) (width 0.12))
  (fp_line (start -26.19 -5.55) (end -24.92 -5.55) (layer F.SilkS) (width 0.12))
  (fp_line (start -24.92 -5.55) (end -24.92 -0.47) (layer F.SilkS) (width 0.12))
  (fp_line (start -24.92 -0.47) (end -27.46 -0.47) (layer F.SilkS) (width 0.12))
  (fp_line (start -27.46 -0.47) (end -27.46 -5.55) (layer F.SilkS) (width 0.12))
  (fp_line (start -27.46 -5.55) (end -26.19 -5.55) (layer F.SilkS) (width 0.12))
  (fp_line (start -4.5 -8.3) (end -4.5 -7.5) (layer F.SilkS) (width 0.12))
  (fp_line (start -11.9 2.3) (end -33.5 2.3) (layer F.SilkS) (width 0.12))
  (fp_line (start -33.5 2.3) (end -33.5 -8.3) (layer F.SilkS) (width 0.12))
  (pad 1 thru_hole circle (at 62.4 -17) (size 2.54 2.54) (drill 1) (layers *.Cu *.Mask))
  (pad A1 thru_hole circle (at -30 0.8) (size 2.54 2.54) (drill 1) (layers *.Cu *.Mask))
  (pad 5 thru_hole circle (at 34 -16.4) (size 1.6 1.6) (drill 1) (layers *.Cu *.Mask))
  (pad 11 thru_hole circle (at -11.1 0.8) (size 3 3) (drill 1.3) (layers *.Cu *.Mask))
  (pad "" np_thru_hole circle (at 3.6 -39) (size 4 4) (drill 3) (layers *.Cu *.Mask))
  (pad "" np_thru_hole circle (at 62.4 -39) (size 4 4) (drill 3) (layers *.Cu *.Mask))
  (pad "" np_thru_hole circle (at 62.4 -11) (size 4 4) (drill 3) (layers *.Cu *.Mask))
  (pad "" np_thru_hole circle (at 3.6 -11) (size 4 4) (drill 3) (layers *.Cu *.Mask))
  (pad 2 thru_hole circle (at 62.4 -22) (size 2.54 2.54) (drill 1) (layers *.Cu *.Mask))
  (pad 3 thru_hole circle (at 62.4 -27) (size 2.54 2.54) (drill 1) (layers *.Cu *.Mask))
  (pad 4 thru_hole circle (at 62.4 -32) (size 2.54 2.54) (drill 1) (layers *.Cu *.Mask))
  (pad 14 thru_hole circle (at 2 -19.34) (size 1.6 1.6) (drill 1) (layers *.Cu *.Mask))
  (pad 14 thru_hole circle (at 2 -21.88) (size 1.6 1.6) (drill 1) (layers *.Cu *.Mask))
  (pad 14 thru_hole circle (at 2 -30.64) (size 1.6 1.6) (drill 1) (layers *.Cu *.Mask))
  (pad 14 thru_hole circle (at 2 -28.1) (size 1.6 1.6) (drill 1) (layers *.Cu *.Mask))
  (pad 14 thru_hole circle (at 2 -33.18) (size 1.6 1.6) (drill 1) (layers *.Cu *.Mask))
  (pad 14 thru_hole circle (at 2 -16.8) (size 1.6 1.6) (drill 1) (layers *.Cu *.Mask))
  (model ${KISYS3DMOD}/Relays_THT.3dshapes/Relay_1-Form-A_Schrack-RYII_RM5mm.wrl
    (at (xyz 0 0 0))
    (scale (xyz 1 1 1))
    (rotate (xyz 0 0 0))
  )
)
