(module VIA-0.6mm (layer F.Cu) (tedit 5A25BDCC)
  (fp_text reference REF** (at 0 2) (layer F.SilkS) hide
    (effects (font (size 1 1) (thickness 0.15)))
  )
  (fp_text value VIA-0.6mm (at 0 -2) (layer F.Fab) hide
    (effects (font (size 1 1) (thickness 0.15)))
  )
  (pad 1 thru_hole circle (at 0 0) (size 0.6 0.6) (drill 0.3) (layers *.Cu)
    (zone_connect 2))
)
